com\in28minutes\rest\webservices\restfulwebservices\HelloWorldController.class
com\in28minutes\rest\webservices\restfulwebservices\RequestObject.class
com\in28minutes\rest\webservices\restfulwebservices\HelloWorldBean.class
com\in28minutes\rest\webservices\restfulwebservices\RestfulWebServicesApplication.class
com\in28minutes\rest\webservices\restfulwebservices\CommonConfiguration.class
com\in28minutes\rest\webservices\restfulwebservices\RequestInterceptor.class
com\in28minutes\rest\webservices\restfulwebservices\ResponseObject.class
